{
  "development": {
    "username": "postgres",
    "password": "Muthia17",
    "database": "cp5",
    "host": "localhost",
    "dialect": "postgres"
  },
  "test": {
    "username": "postgres",
    "password": "Muthia17",
    "database": "cp5",
    "host": "localhost",
    "dialect": "postgres"
  },
  "production": {
    "username": "postgres",
    "password": "Muthia17",
    "database": "cp5",
    "host": "localhost",
    "dialect": "postgres"
  }
}
